COVID-19 Pandemic • COVID19dashboard
…
The package and part of the data can be accessed via:

library(COVID19dashboard)
#> Loading required package: shiny
#> Loading required package: tibble
#> Loading required package: shinydashboard
#> 
#> Attaching package: 'shinydashboard'
#> The following object is masked from 'package:graphics':
#> 
#>     box
#> Loading required package: rnaturalearth
library(tibble)
covid_raw
#> # A tibble: 46,484 x 41
#>    iso_code continent location date       total_cases new_cases new_cases_smoot…
#>    <chr>    <chr>     <chr>    <date>           <dbl>     <dbl>            <dbl>
#>  1 AFG      Asia      Afghani… 2019-12-31           0         0               NA
#>  2 AFG      Asia      Afghani… 2020-01-01           0         0               NA
#>  3 AFG      Asia      Afghani… 2020-01-02           0         0               NA
#>  4 AFG      Asia      Afghani… 2020-01-03           0         0               NA
#>  5 AFG      Asia      Afghani… 2020-01-04           0         0               NA
#>  6 AFG      Asia      Afghani… 2020-01-05           0         0               NA
#>  7 AFG      Asia      Afghani… 2020-01-06           0         0                0
#>  8 AFG      Asia      Afghani… 2020-01-07           0         0                0
#>  9 AFG      Asia      Afghani… 2020-01-08           0         0                0
#> 10 AFG      Asia      Afghani… 2020-01-09           0         0                0
#> # … with 46,474 more rows, and 34 more variables: total_deaths <dbl>,
#> #   new_deaths <dbl>, new_deaths_smoothed <dbl>, total_cases_per_million <dbl>,
#> #   new_cases_per_million <dbl>, new_cases_smoothed_per_million <dbl>,
#> #   total_deaths_per_million <dbl>, new_deaths_per_million <dbl>,
#> #   new_deaths_smoothed_per_million <dbl>, new_tests <lgl>, total_tests <lgl>,
#> #   total_tests_per_thousand <lgl>, new_tests_per_thousand <lgl>,
#> #   new_tests_smoothed <lgl>, new_tests_smoothed_per_thousand <lgl>,
#> #   tests_per_case <lgl>, positive_rate <lgl>, tests_units <lgl>,
#> #   stringency_index <dbl>, population <dbl>, population_density <dbl>,
…
